19:00:00,19:20:00,Casey Jones,0123456789,DVC,5,5,PZV,1
19:00:00,19:20:00,Casey Bones,0123456789,DVC,5,5,PZV,1
19:00:00,19:20:00,Casey Phones,0123456789,DVC,5,5,PZV,1
19:00:00,19:20:00,Casey Tones,0123456789,DVC,5,5,PZV,1
19:00:00,19:20:00,Casey Stones,0123456789,DVC,5,5,PZV,1